Ath1md
…
Compare Wald test with LRT test, which checks the null-model with the full model. This is a particularly suitable method for experiments with multiple time points. First for the uM solA treatment:

source("Ath1/scripts/compare_Wald_vs_LRT.R")
u <- compare_wald_vs_LRT()

## [1] "LRT gives 25 DEGs, while Wald test gives 28 DEGs."

length(row.names(u))

## [1] 25

u

## # A tibble: 25 x 7
##    gene                  baseMean log2FoldChange  lfcSE  stat     pvalue    padj
##    <chr>                    <dbl>          <dbl>  <dbl> <dbl>      <dbl>   <dbl>
##  1 AT1G55860.1             2276.          -0.191 0.0455 -4.19    2.77e-5 3.30e-2
##  2 AT1G73540.1              315.           0.582 0.133   4.39    1.13e-5 2.17e-2
##  3 AT1G80440.1             1243.           0.850 0.161   5.26    1.43e-7 1.08e-3
##  4 AT2G15890.2,AT2G1589~     10.2          1.42  0.330   4.30    1.69e-5 2.55e-2
##  5 AT2G20570.1,AT2G2057~   2047.          -0.385 0.0909 -4.24    2.28e-5 2.98e-2
##  6 AT2G22770.1              344.           0.473 0.108   4.40    1.08e-5 2.17e-2
##  7 AT2G24240.1              113.           0.527 0.0984  5.36    8.40e-8 9.51e-4
##  8 AT2G24550.1              715.           0.411 0.0899  4.57    4.87e-6 1.58e-2
##  9 AT2G27830.1              650.           0.523 0.124   4.23    2.37e-5 2.98e-2
## 10 AT2G40000.1             1328.           0.813 0.181   4.49    6.96e-6 1.97e-2
## # ... with 15 more rows

Then for the nM solA treatment:

n <- compare_wald_vs_LRT(trtm = c("ethanol", "nanomolar_solanoeclepinA"),
                    treatment2 = "nanomolar_solanoeclepinA")

## [1] "LRT gives 217 DEGs, while Wald test gives 217 DEGs."

length(row.names(n))

## [1] 215

n

## # A tibble: 215 x 7
##    gene                   baseMean log2FoldChange  lfcSE  stat    pvalue    padj
##    <chr>                     <dbl>          <dbl>  <dbl> <dbl>     <dbl>   <dbl>
##  1 AT1G02010.1,AT1G02010~   150.           -0.402 0.112  -3.57   3.52e-4 4.24e-2
##  2 AT1G02610.2,AT1G02610~    15.6           1.13  0.318   3.55   3.86e-4 4.43e-2
##  3 AT1G02660.1              181.            1.05  0.182   5.79   7.24e-9 8.11e-6
##  4 AT1G03445.1,AT1G03445~     5.66         -1.27  0.352  -3.62   2.90e-4 3.66e-2
##  5 AT1G03610.2,AT1G03610~   228.            0.443 0.102   4.33   1.49e-5 4.51e-3
##  6 AT1G07135.1              629.            1.06  0.174   6.06   1.39e-9 2.52e-6
##  7 AT1G07350.3,AT1G07350~  1227.           -0.397 0.0791 -5.02   5.08e-7 2.91e-4
##  8 AT1G09660.1,AT1G09660~   472.           -0.276 0.0777 -3.55   3.81e-4 4.42e-2
##  9 AT1G13260.1              876.            0.646 0.149   4.35   1.38e-5 4.27e-3
## 10 AT1G14560.1,AT1G14560~   181.           -0.310 0.0735 -4.22   2.44e-5 6.11e-3
## # ... with 205 more rows
…
