Ath2
…
Likelihood Ratio Test (LRT)

Lets compare the DEGs from the Wald test with the LRT (Likelihood Ratio Test) for verification.To start with, lets take into account all samples and see if LRT detects any DEGs based on solA treatment.

source("Ath2/scripts/compare_Wald_vs_LRT.R")

The output table of this function gives all the genes that overlap between the Wald test and LRT. So the number of rows is the number of overlapping genes.The formulae for the LRT are ~N + P (null model) and ~N + P + solA (full model), because we select method = solA. This same full model is used for Wald test.

compare_wald_vs_LRT(trtm = c("a","b","c","d","e","f","g"), method = "solA")

## [1] "LRT gives 612 DEGs, while Wald test gives 630 DEGs."

## # A tibble: 604 x 7
##    gene      baseMean log2FoldChange  lfcSE  stat   pvalue         padj
##    <chr>        <dbl>          <dbl>  <dbl> <dbl>    <dbl>        <dbl>
##  1 AT1G01430    552.           0.277 0.0737  3.76 1.70e- 4 0.0111      
##  2 AT1G01448     33.1         -0.699 0.196  -3.56 3.70e- 4 0.0188      
##  3 AT1G01470   3309.          -0.298 0.0898 -3.31 9.20e- 4 0.0336      
##  4 AT1G02610    432.          -0.657 0.0994 -6.61 3.94e-11 0.0000000372
##  5 AT1G02660   1972.          -0.408 0.125  -3.27 1.08e- 3 0.0378      
##  6 AT1G03220   1459.          -0.342 0.0945 -3.62 2.97e- 4 0.0165      
##  7 AT1G03610    645.          -0.380 0.0748 -5.08 3.82e- 7 0.0000990   
##  8 AT1G03630    655.           0.368 0.0885  4.16 3.14e- 5 0.00301     
##  9 AT1G03730    194.          -0.511 0.118  -4.35 1.37e- 5 0.00160     
## 10 AT1G04350    427.           0.297 0.0837  3.55 3.92e- 4 0.0194      
## # ... with 594 more rows

Lets see if the other model we used for the Wald test are also verified by LRT: the model ~N+P+N:solA. How many DEGs are caused by the interaction between N and solA? (reduced model ~N+P)

compare_wald_vs_LRT(trtm = c("a","b","c","d","e","f","g"), method = "N:solA")

## [1] "LRT gives 561 DEGs, while Wald test gives 143 DEGs."

## # A tibble: 138 x 7
##    gene      baseMean log2FoldChange  lfcSE  stat      pvalue     padj
##    <chr>        <dbl>          <dbl>  <dbl> <dbl>       <dbl>    <dbl>
##  1 AT1G02610    432.          -0.606 0.127  -4.78 0.00000171  0.00146 
##  2 AT1G03610    645.          -0.346 0.0954 -3.62 0.000293    0.0462  
##  3 AT1G07650    274.           0.335 0.0917  3.65 0.000261    0.0431  
##  4 AT1G13260    932.          -0.537 0.122  -4.42 0.00000996  0.00486 
##  5 AT1G14200    322.           0.519 0.126   4.12 0.0000371   0.0132  
##  6 AT1G16030     92.0         -1.02  0.269  -3.78 0.000159    0.0334  
##  7 AT1G21000    472.          -0.332 0.0831 -3.99 0.0000665   0.0198  
##  8 AT1G22882    429.           0.343 0.0924  3.71 0.000205    0.0378  
##  9 AT1G23390   5745.          -0.369 0.0799 -4.62 0.00000381  0.00258 
## 10 AT1G23710    342.          -0.637 0.121  -5.27 0.000000139 0.000195
## # ... with 128 more rows

LRT gives many more DEGs and nearly all of the Wald test are in this list. So this model gives us a reliable set of DEGs.

Lets do the same for the pairwise comparisons within the nutritional conditions. The formulae for the LRT are ~1 (null model) and ~treatment (full model), because we select method = treatment. This same full model is used for the Wald test.

#for no starvation:
compare_wald_vs_LRT(trtm = c("a","b"), method = "treatment")

## [1] "LRT gives 76 DEGs, while Wald test gives 77 DEGs."

## # A tibble: 76 x 7
##    gene      baseMean log2FoldChange lfcSE  stat        pvalue       padj
##    <chr>        <dbl>          <dbl> <dbl> <dbl>         <dbl>      <dbl>
##  1 AT1G02610     371.         -0.685 0.181 -3.78 0.000156      0.0343    
##  2 AT1G13245    1723.         -0.472 0.119 -3.98 0.0000694     0.0205    
##  3 AT1G13260     829.         -0.691 0.141 -4.91 0.000000894   0.000852  
##  4 AT1G14200     358.          0.644 0.148  4.34 0.0000142     0.00616   
##  5 AT1G15040    2235.         -0.650 0.165 -3.93 0.0000849     0.0229    
##  6 AT1G21400    1963.         -0.588 0.152 -3.87 0.000109      0.0279    
##  7 AT1G25400    1468.         -1.04  0.175 -5.92 0.00000000318 0.00000759
##  8 AT1G25560     831.         -0.731 0.126 -5.78 0.00000000732 0.0000131 
##  9 AT1G27730     777.         -0.760 0.171 -4.43 0.00000921    0.00470   
## 10 AT1G30110     154.         -0.821 0.196 -4.18 0.0000293     0.00975   
## # ... with 66 more rows

#for only P starvation:
compare_wald_vs_LRT(trtm = c("c","d"), ref_treatment = "c", treatment2 = "d", method = "treatment")

## [1] "LRT gives 46 DEGs, while Wald test gives 45 DEGs."

## # A tibble: 45 x 7
##    gene      baseMean log2FoldChange lfcSE  stat   pvalue     padj
##    <chr>        <dbl>          <dbl> <dbl> <dbl>    <dbl>    <dbl>
##  1 AT1G16030     83.1         -1.43  0.309 -4.64 3.52e- 6 4.07e- 3
##  2 AT1G25560    931.          -0.918 0.114 -8.06 7.77e-16 1.53e-11
##  3 AT1G27730    769.          -0.771 0.136 -5.67 1.39e- 8 4.55e- 5
##  4 AT1G28190    126.          -0.931 0.193 -4.82 1.41e- 6 2.31e- 3
##  5 AT1G68840   1325.          -0.656 0.122 -5.38 7.47e- 8 1.68e- 4
##  6 AT1G69490    136.          -0.973 0.249 -3.91 9.14e- 5 4.23e- 2
##  7 AT1G80450    110.          -0.954 0.201 -4.75 2.07e- 6 2.54e- 3
##  8 AT2G03760   1159.          -0.745 0.146 -5.12 3.10e- 7 6.10e- 4
##  9 AT2G17230    285.           0.665 0.148  4.48 7.52e- 6 6.72e- 3
## 10 AT2G23130    692.           0.843 0.184  4.58 4.62e- 6 4.69e- 3
## # ... with 35 more rows

#for N+P starvation:
compare_wald_vs_LRT(trtm = c("e","f"), ref_treatment = "e", treatment2 = "f", method = "treatment")

## [1] "LRT gives 355 DEGs, while Wald test gives 395 DEGs."

## # A tibble: 354 x 7
##    gene      baseMean log2FoldChange lfcSE  stat     pvalue     padj
##    <chr>        <dbl>          <dbl> <dbl> <dbl>      <dbl>    <dbl>
##  1 AT1G01470  2868.           -0.587 0.154 -3.82 0.000134   0.0133  
##  2 AT1G01560     9.84         -3.89  0.989 -3.93 0.0000845  0.00957 
##  3 AT1G02610   431.           -0.562 0.155 -3.64 0.000275   0.0219  
##  4 AT1G02930  2643.           -1.56  0.429 -3.64 0.000271   0.0217  
##  5 AT1G03730   220.           -0.799 0.202 -3.96 0.0000738  0.00862 
##  6 AT1G07135  1842.           -0.778 0.198 -3.94 0.0000814  0.00935 
##  7 AT1G07160    30.7          -1.95  0.409 -4.76 0.00000195 0.000758
##  8 AT1G07400    84.8          -1.43  0.336 -4.25 0.0000212  0.00380 
##  9 AT1G08050   183.           -1.26  0.300 -4.20 0.0000268  0.00454 
## 10 AT1G08560   303.            0.667 0.183  3.64 0.000271   0.0217  
## # ... with 344 more rows
…
