Sly
…
## estimating dispersions

## found already estimated dispersions, replacing these

## gene-wise dispersion estimates

## mean-dispersion relationship

## final dispersion estimates

## fitting model and testing

## [1] "LRT gives 47 DEGs, while Wald test gives 52 DEGs."

## # A tibble: 47 x 7
##    gene                  baseMean log2FoldChange lfcSE  stat   pvalue       padj
##    <chr>                    <dbl>          <dbl> <dbl> <dbl>    <dbl>      <dbl>
##  1 mRNA:Solyc00g500021.~     108.          1.90  0.355  5.35 8.62e- 8    1.19e-4
##  2 mRNA:Solyc00g500024.~    1855.          0.978 0.224  4.36 1.28e- 5    8.08e-3
##  3 mRNA:Solyc00g500039.~   11225.          1.23  0.212  5.81 6.21e- 9    1.12e-5
##  4 mRNA:Solyc00g500044.~   11105.          1.24  0.212  5.82 5.83e- 9    1.12e-5
##  5 mRNA:Solyc00g500054.~     577.          1.22  0.258  4.72 2.41e- 6    1.95e-3
##  6 mRNA:Solyc00g500055.~    1119.          1.29  0.248  5.20 1.97e- 7    2.30e-4
##  7 mRNA:Solyc00g500056.~    2102.          1.47  0.226  6.50 7.95e-11    2.33e-7
##  8 mRNA:Solyc00g500068.~     108.          1.90  0.357  5.33 1.00e- 7    1.31e-4
##  9 mRNA:Solyc00g500071.~    1853.          0.982 0.224  4.38 1.16e- 5    7.56e-3
## 10 mRNA:Solyc00g500083.~   11225.          1.23  0.212  5.81 6.21e- 9    1.12e-5
## # ... with 37 more rows
…
## estimating dispersions

## found already estimated dispersions, replacing these

## gene-wise dispersion estimates

## mean-dispersion relationship

## final dispersion estimates

## fitting model and testing

## [1] "LRT gives 37 DEGs, while Wald test gives 53 DEGs."

## # A tibble: 37 x 7
##    gene                    baseMean log2FoldChange lfcSE  stat    pvalue   padj
##    <chr>                      <dbl>          <dbl> <dbl> <dbl>     <dbl>  <dbl>
##  1 mRNA:Solyc00g500039.1.1 20750.            -1.29 0.313 -4.14 0.0000349 0.0334
##  2 mRNA:Solyc00g500044.1.1 20534.            -1.29 0.312 -4.14 0.0000345 0.0334
##  3 mRNA:Solyc00g500083.1.1 20750.            -1.29 0.313 -4.14 0.0000350 0.0334
##  4 mRNA:Solyc00g500301.1.1 20537.            -1.29 0.312 -4.14 0.0000349 0.0334
##  5 mRNA:Solyc00g500325.1.1 20535.            -1.29 0.312 -4.14 0.0000345 0.0334
##  6 mRNA:Solyc01g066770.3.1     7.56          -5.41 1.34  -4.04 0.0000540 0.0346
##  7 mRNA:Solyc01g081540.4.1   223.            -1.29 0.321 -4.01 0.0000616 0.0350
##  8 mRNA:Solyc01g074000.3.1   229.             1.44 0.333  4.32 0.0000159 0.0275
##  9 mRNA:Solyc01g150150.1.1     8.54          -5.59 1.37  -4.09 0.0000433 0.0335
## 10 mRNA:Solyc02g065610.3.1   203.            -1.48 0.360 -4.11 0.0000392 0.0335
## # ... with 27 more rows
…
