Sly
…
## estimating dispersions

## found already estimated dispersions, replacing these

## gene-wise dispersion estimates

## mean-dispersion relationship

## final dispersion estimates

## fitting model and testing

## [1] "LRT gives 23 DEGs, while Wald test gives 43 DEGs."

## # A tibble: 23 x 7
##    gene                    baseMean log2FoldChange lfcSE  stat     pvalue   padj
##    <chr>                      <dbl>          <dbl> <dbl> <dbl>      <dbl>  <dbl>
##  1 mRNA:Solyc01g081540.4.1     223.         -1.28  0.321 -4.01 0.0000613  0.0353
##  2 mRNA:Solyc01g074000.3.1     229.          1.44  0.332  4.32 0.0000155  0.0253
##  3 mRNA:Solyc02g065610.3.1     204.         -1.48  0.362 -4.09 0.0000427  0.0327
##  4 mRNA:Solyc02g081190.4.1   35926.         -1.16  0.274 -4.24 0.0000227  0.0273
##  5 mRNA:Solyc03g062720.3.1     232.          1.06  0.268  3.96 0.0000756  0.0389
##  6 mRNA:Solyc03g083400.3.1     929.         -0.821 0.203 -4.05 0.0000515  0.0353
##  7 mRNA:Solyc04g011390.1.1     283.          0.973 0.233  4.17 0.0000308  0.0301
##  8 mRNA:Solyc04g011440.4.1     760.         -1.14  0.251 -4.55 0.00000533 0.0171
##  9 mRNA:Solyc04g014600.3.1     339.         -1.27  0.317 -4.01 0.0000610  0.0353
## 10 mRNA:Solyc04g081530.1.1     223.          1.22  0.298  4.09 0.0000434  0.0327
## # ... with 13 more rows
…
